5510-Projecxt
…
Join data using bind_rows

0.2.2 Context

In this question we are concerned with district that has had the highest number of incidents across all hazard classes in the year 2019/20.

Lets first visualize data from each data set for the quarters 1, 2, 3 and 4 for the year 2019/20.

dat_Q1_2020 <- read_csv("data/dat_Q1_2020.csv") %>%
  rename(Number_Incidents_total =`Number of incidents within the Brigade Area for the reporting period across all Hazard Classes`)%>%
  rename(CFA_Brigade_Area = `CFA Brigade Area`)

dat_Q1_2020

## # A tibble: 68 x 4
##       X1 `CFA District` CFA_Brigade_Area Number_Incidents_total
##    <dbl> <chr>          <chr>                             <dbl>
##  1     1 02             Bendigo                             198
##  2     2 02             Golden Square                        24
##  3     3 02             Kangaroo Flat                        37
##  4     4 04             Portland                             43
##  5     5 05             Hamilton                             24
##  6     6 05             Warrnambool                         116
##  7     7 07             Belmont                             114
##  8     8 07             Corio                               247
##  9     9 07             Geelong City                        280
## 10    10 07             Geelong West                         33
## # ... with 58 more rows
…
The above plot shows us the number of incidents for the first quarter 2019/20. On the x-axis we have number of incidents and the y-axis we can see the names of districts.

dat_Q2_2020 <- read_csv("data/dat_Q2_2020.csv")%>%
  rename(Number_Incidents_total = `Number of incidents within the Brigade Area for the reporting period across all Hazard Classes`)%>%
  rename(CFA_Brigade_Area = `CFA Brigade Area`)

dat_Q2_2020

## # A tibble: 77 x 4
##       X1 `CFA District` CFA_Brigade_Area Number_Incidents_total
##    <dbl> <chr>          <chr>                             <dbl>
##  1     1 02             Bendigo                             225
##  2     2 02             Eaglehawk                            47
##  3     3 02             Golden Square                        24
##  4     4 02             Kangaroo Flat                        47
##  5     5 04             Portland                             35
##  6     6 05             Hamilton                             31
##  7     7 05             Warrnambool                         124
##  8     8 06             Colac                                43
##  9     9 07             Belmont                             112
## 10    10 07             Corio                               220
## # ... with 67 more rows
…
Similiar to the plot above, this plot shows us the number of incidents for the second quarter 2019/20. On the x-axis we have number of incidents and the y-axis we can see the names of districts.

dat_Q3_2020 <- read_csv("data/dat_Q3_2020.csv") %>%
  rename(Number_Incidents_total = `Number of incidents within the Brigade Area for the reporting period across all Hazard Classes`)%>%
  rename(CFA_Brigade_Area = `CFA Brigade Area`)

dat_Q3_2020

## # A tibble: 70 x 4
##       X1 `CFA District` CFA_Brigade_Area Number_Incidents_total
##    <dbl> <chr>          <chr>                             <dbl>
##  1     1 02             Bendigo                             205
##  2     2 02             Eaglehawk                            32
##  3     3 02             Golden Square                        30
##  4     4 02             Kangaroo Flat                        25
##  5     5 04             Portland                             38
##  6     6 05             Hamilton                             32
##  7     7 05             Warrnambool                         133
##  8     8 07             Belmont                             130
##  9     9 07             Corio                               258
## 10    10 07             Geelong City                        264
## # ... with 60 more rows
…
The above plot shows us the number of incidents for the third quarter 2019/20. On the x-axis we have number of incidents and the y-axis we can see the names of districts.

dat_Q4_2020 <- read_csv("data/dat_2020Q4.csv")%>%
  select(`CFA District`, `CFA Brigade Area`, `Number of incidents within the Brigade Area for the reporting period across all Hazard Classes`)%>%
  rename(Number_Incidents_total = `Number of incidents within the Brigade Area for the reporting period across all Hazard Classes`)%>%
    rename(CFA_Brigade_Area = `CFA Brigade Area`)
  
dat_Q4_2020

## # A tibble: 28 x 3
##    `CFA District` CFA_Brigade_Area Number_Incidents_total
##    <chr>          <chr>                             <dbl>
##  1 02             Bendigo                             155
##  2 02             Eaglehawk                            38
##  3 02             Golden Square                        32
##  4 02             Kangaroo Flat                        38
##  5 04             Portland                             30
##  6 05             Warrnambool                         127
##  7 07             Belmont                             103
##  8 07             Corio                               207
##  9 07             Geelong City                        188
## 10 07             Geelong West                         25
## # ... with 18 more rows
…
The above plot shows us the number of incidents for the fourth quarter 2019/20. On the x-axis we have number of incidents and the y-axis we can see the names of districts.

binding_data <- bind_rows(dat_Q1_2020,dat_Q2_2020,dat_Q3_2020,dat_Q4_2020)

binding_data

## # A tibble: 243 x 4
##       X1 `CFA District` CFA_Brigade_Area Number_Incidents_total
##    <dbl> <chr>          <chr>                             <dbl>
##  1     1 02             Bendigo                             198
##  2     2 02             Golden Square                        24
##  3     3 02             Kangaroo Flat                        37
##  4     4 04             Portland                             43
##  5     5 05             Hamilton                             24
##  6     6 05             Warrnambool                         116
##  7     7 07             Belmont                             114
##  8     8 07             Corio                               247
##  9     9 07             Geelong City                        280
## 10    10 07             Geelong West                         33
## # ... with 233 more rows
…
